[npc]
NULL
down
0
10
10
NULL
0
-1
0,1
false
false
false
[/npc]
[npc]
NULL
down
0
13
5
NULL
0
-1
2,3
false
false
false
[/npc]
[npc]
NULL
down
0
51
9
NULL
0
-1
2,3
false
false
false
[/npc]
[npc]
NULL
down
0
60
8
NULL
0
-1
0,1
false
false
false
[/npc]
[npc]
NULL
down
0
67
5
NULL
0
-1
4,5
false
false
false
[/npc]
[npc]
Pokemaniac Shane
down
117
53
8
Nidorina,16,Nidorino,16
2
-1
6,7
false
false
false
[/npc]
[npc]
Fisher Tully
left
368
46
10
Qwilfish,18
1
-1
8
false
false
false
[/npc]
[npc]
Hiker Benjamin
up
366
57
9
Diglett,14,Geodude,14,Dugtrio,16
3
-1
9
false
false
false
[/npc]
[warp]
16
5
4
42
-33
-42
6
[/warp]
[warp]
34
9
24
42
-33
-42
6
[/warp]
[warp]
52
7
49
42
-33
-42
6
[/warp]
