[npc]
Goldenrod Citizen
down
276
4
6
NULL
0
-1
0
false
false
false
[/npc]
[npc]
Goldenrod Citizen
down
278
3
4
NULL
0
-1
1
false
false
false
[/npc]
[npc]
Goldenrod Citizen
left
271
6
3
NULL
0
-1
2,3
false
false
false
[/npc]
[warp]
3
8
32
22
-5
0
0
[/warp]
