[warp]
58
56
42
24
-41
1
0
[/warp]
[warp]
51
52
34
27
-41
1
0
[/warp]
[warp]
33
56
21
24
-41
1
0
[/warp]
[warp]
48
47
32
25
-41
3
0
[/warp]
[warp]
38
36
21
17
-41
3
0
[/warp]
[warp]
34
41
19
20
-41
3
0
[/warp]
[warp]
60
26
14
24
-41
4
0
[/warp]

