[warp]
17
29
41
14
-44
10
0
[/warp]
[warp]
10
19
48
18
-42
10
0
[/warp]
[warp]
48
19
10
20
-42
10
0
[/warp]
[warp]
9
5
47
9
-42
10
0
[/warp]
[warp]
47
9
9
5
-42
10
0
[/warp]
[warp]
48
7
125
23
-42
10
0
[/warp]
[warp]
125
24
48
8
-42
10
0
[/warp]