[warp]
22
22
23
29
-44
3
0
[/warp]
[warp]
36
39
35
47
-44
3
0
[/warp]
[warp]
57
46
54
54
-44
3
0
[/warp]
[warp]
46
44
44
42
-44
1
0
[/warp]
[warp]
32
36
34
28
-44
1
0
[/warp]
[warp]
57
20
57
18
-44
1
0
[/warp]
[warp]
20
46
23
41
-44
1
0
[/warp]
