[npc]
Sailor
left
395
6
5
NULL
0
-1
0,1
false
false
false
[/npc]
[npc]
Sailor
up
395
8
10
NULL
0
-1
2,3
false
false
false
[/npc]
[npc]
Bar Keeper
left
326
9
6
NULL
0
-1
4
false
false
false
[/npc]
[npc]
NULL
down
0
8
6
NULL
0
-1
5
false
false
false
[/npc]
[warp]
4
12
7
22
-6
-3
0
[/warp]
