[npc]
Wattson
down
206
5
2
Voltorb,50,Electrike,50,Magneton,50,Manectric,50
4
18
0
false
false
false
[/npc]
[warp]
5
23
9
6
27
21
0
[/warp]
[warp]
6
23
9
6
27
21
0
[/warp]