[npc]
League Officer
left
36
10
10
NULL
0
-1
0,1
FALSE
FALSE
FALSE
[/npc]
[warp]
8
1
7
19
2
-1
0
[/warp]
[warp]
9
1
8
19
2
-1
0
[/warp]
[warp]
8
11
7
1
2
0
3
[/warp]
[warp]
9
11
8
1
2
0
3
[/warp]