[npc]
Falkner
down
284
23
18
Pidgeot,15,Fearow,15,Farfetch'd,15,Dodrio,15,Noctowl,15,Murkrow,15
6
8
0,1,2,3,4,5
false
false
false
[/npc]
[npc]
Bird Keeper Abe
right
269
21
27
Spearow,9
1
-1
6
false
false
false
[/npc]
[npc]
Bird Keeper Rod
left
269
25
23
Pidgey,7,Pidgey,7
2
-1
7,8,9
false
false
false
[/npc]
[npc]
Advisor
down
344
24
31
NULL
0
-1
10,11,12,13
false
false
false
[/npc]
[warp]
23
31
19
18
-3
-2
0
[/warp]
