[npc]
Daughter
down
340
8
13
NULL
0
-1
0
false
false
false
[/npc]
[npc]
Wife
down
275
3
13
NULL
0
-1
1,2
false
false
false
[/npc]
[npc]
Violet City Citizen
down
274
3
12
NULL
0
-1
3,4
false
false
false
[/npc]
[warp]
4
15
21
30
-3
-2
0
[/warp]
