[npc]
Know It All
down
367
4
5
NULL
0
-1
0,1,2
false
false
false
[/npc]
[npc]
NULL
down
0
5
4
NULL
0
-1
3
false
false
false
[/npc]
[warp]
5
8
2
12
-50
-28
0
[/warp]