[npc]
Cooltrainer Emma
up
266
4
32
Poliwhirl,28
1
-1
0,1
false
false
false
[/npc]
[npc]
Cooltrainer Gwen
down
267
6
16
Eevee,26,Flareon,22,Vaporeon,22,Jolteon,22
4
-1
2
false
false
false
[/npc]
[npc]
Cooltrainer Nick
down
265
16
22
Charmander,26,Squirtle,26,Bulbasaur,26
3
-1
3,4
false
false
false
[/npc]
[warp]
6
6
20
6
-50
-40
0
[/warp]
