[warp]
23
93
24
36
40
-41
0
[/warp]
[warp]
23
63
23
77
0
-47
0
[/warp]
[warp]
24
63
24
77
0
-47
0
[/warp]
[warp]
23
76
23
63
0
-47
0
[/warp]
[warp]
24
76
24
63
0
-47
0
[/warp]
[warp]
23
37
23
24
0
-47
0
[/warp]
[warp]
24
37
23
24
0
-47
0
[/warp]
[warp]
22
25
24
38
0
-47
0
[/warp]
[warp]
23
25
24
38
0
-47
0
[/warp]
[warp]
24
25
24
38
0
-47
0
[/warp]