[npc]
NULL
down
0
6
149
NULL
0
-1
0,1,2
false
false
false
[/npc]
[npc]
NULL
down
0
16
149
NULL
0
-1
0,1,2
false
false
false
[/npc]
[npc]
NULL
down
0
2
140
NULL
0
-1
0,1,2
false
false
false
[/npc]
[npc]
NULL
down
0
9
140
NULL
0
-1
0,1,2
false
false
false
[/npc]
[npc]
NULL
down
0
12
131
NULL
0
-1
0,1,2
false
false
false
[/npc]
[npc]
NULL
down
0
15
123
NULL
0
-1
0,1,2
false
false
false
[/npc]
[npc]
NULL
down
0
21
73
NULL
0
-1
0,1,2
false
false
false
[/npc]
[npc]
NULL
down
0
11
61
NULL
0
-1
0,1,2
false
false
false
[/npc]
[npc]
NULL
down
0
18
61
NULL
0
-1
0,1,2
false
false
false
[/npc]
[npc]
NULL
down
0
2
52
NULL
0
-1
0,1,2
false
false
false
[/npc]
[npc]
NULL
down
0
8
52
NULL
0
-1
0,1,2
false
false
false
[/npc]
[npc]
NULL
down
0
7
41
NULL
0
-1
0,1,2
false
false
false
[/npc]
[npc]
NULL
down
0
7
35
NULL
0
-1
0,1,2
false
false
false
[/npc]
[npc]
NULL
down
0
7
29
NULL
0
-1
0,1,2
false
false
false
[/npc]
[npc]
NULL
down
0
12
149
NULL
0
-1
0,3,2
false
false
false
[/npc]
[npc]
NULL
down
0
19
149
NULL
0
-1
0,3,2
false
false
false
[/npc]
[npc]
NULL
down
0
5
140
NULL
0
-1
0,3,2
false
false
false
[/npc]
[npc]
NULL
down
0
21
140
NULL
0
-1
0,3,2
false
false
false
[/npc]
[npc]
NULL
down
0
8
131
NULL
0
-1
0,3,2
false
false
false
[/npc]
[npc]
NULL
down
0
11
123
NULL
0
-1
0,3,2
false
false
false
[/npc]
[npc]
NULL
down
0
12
112
NULL
0
-1
0,3,2
false
false
false
[/npc]
[npc]
NULL
down
0
6
94
NULL
0
-1
0,3,2
false
false
false
[/npc]
[npc]
NULL
down
0
19
73
NULL
0
-1
0,3,2
false
false
false
[/npc]
[npc]
NULL
down
0
8
61
NULL
0
-1
0,3,2
false
false
false
[/npc]
[npc]
NULL
down
0
15
61
NULL
0
-1
0,3,2
false
false
false
[/npc]
[npc]
NULL
down
0
5
52
NULL
0
-1
0,3,2
false
false
false
[/npc]
[npc]
NULL
down
0
3
41
NULL
0
-1
0,3,2
false
false
false
[/npc]
[npc]
NULL
down
0
3
35
NULL
0
-1
0,3,2
false
false
false
[/npc]
[npc]
NULL
down
0
3
29
NULL
0
-1
0,3,2
false
false
false
[/npc]
[npc]
NULL
down
0
3
31
NULL
0
-1
4
false
false
false
[/npc]
[npc]
NULL
down
0
18
16
NULL
0
-1
0,3,2
false
false
false
[/npc]
[npc]
NULL
down
0
2
16
NULL
0
-1
0,3,2
false
false
false
[/npc]
[npc]
NULL
down
0
21
16
NULL
0
-1
0,1,2
false
false
false
[/npc]
[npc]
NULL
down
0
5
16
NULL
0
-1
0,1,2
false
false
false
[/npc]
[npc]
NULL
down
0
13
1
NULL
0
-1
0,1,2
false
false
false
[/npc]
[npc]
NULL
down
0
9
1
NULL
0
-1
0,3,2
false
false
false
[/npc]
[warp]
8
153
19
10
-47
-34
0
[/warp]
[warp]
5
28
11
20
-44
-17
0
[/warp]
[warp]
18
28
48
12
-44
-16
0
[/warp]
