[warp]
29
64
4
16
2
-44
0
[/warp]
[warp]
24
42
8
44
2
-42
0
[/warp]
[warp]
60
43
39
44
2
-42
0
[/warp]
[warp]
56
28
46
29
2
-42
0
[/warp]
[warp]
28
7
2
3
2
-41
0
[/warp]
[warp]
61
19
15
69
2
-48
0
[/warp]