[npc]
Black Belt Noob
right
367
21
12
Machop,20
1
-1
0
false
false
false
[/npc]
[npc]
Collector Hector
down
366
13
7
Zangoose,20,Selviper,20
2
-1
0
false
false
false
[/npc]
[npc]
Battle Girl Cindy
left
273
10
15
Meditite,19,Makuhita,19
2
-1
0
false
false
false
[/npc]
Expert Timothy
down
280
6
3
Hariyama,73
1
-1
0
false
false
false
[/npc]
[warp]
27
37
4
38
41
35
0
[/warp]
