[npc]
NULL
down
0
19
24
NULL
0
-1
0
false
false
false
[/npc]
[warp]
21
24
7
8
-47
-32
0
[/warp]
[warp]
13
12
59
12
12
15
0
[/warp]
[warp]
13
13
59
13
12
15
0
[/warp]
[warp]
13
14
59
14
12
15
0
[/warp]