[warp]
4
5
44
4
-45
-17
0
[/warp]
[npc]
NULL
down
0
6
7
NULL
0
-1
0
false
false
false
[/npc]
[npc]
Lass Crissy
right
346
47
3
Paras,31,Paras,31,Parasect,31
3
-1
1
false
false
false
[/npc]
[npc]
Lass Betty
right
346
13
5
Paras,16
3
-1
1
false
false
false
[/npc]
[npc]
Combat Katy
right
273
30
10
Machop,16
3
-1
1
false
false
false
[/npc]